
                NAME       MAX rad (deg)       AVG rad (deg)      MSEC

            acos_std:   0.000000 (  0.00)   0.000000 ( 0.00)   0.04748 
         acos_nvidia:   0.000068 (  0.00)   0.000028 ( 0.00)   0.03719 
       acos_nvidia_q:   0.002680 (  0.15)   0.000996 ( 0.06)   0.06164 
 acos_chebyshev_pade:   0.523796 ( 30.01)   0.030074 ( 1.72)   0.03122 
         acos_linear:   1.901463 (108.95)   1.566918 (89.78)   0.02428 
  acos_q_convergence:   0.456643 ( 26.16)   0.023385 ( 1.34)   0.03502 
acos_q_convergence_1:   1.261882 ( 72.30)   0.506277 (29.01)   0.03204 
